Atividade 2
…
## # A tibble: 1 x 1
##   datasetName                             
##   <chr>                                   
## 1 Diveboard - Scuba diving citizen science

Alguma característica destas ocorrências do Atlântico podem dar pistas de como continuar filtrando os resultados. Neste caso, abaixo podemos ver que, ao investigarmos um programa de ciência específico de identificação realizada por mergulhadores amadores, notamos que este concentra a maior parte das suspeitas. Assim, é melhor ser conservador e remover todas as ocorrências associadas a tal programa.

# 27 ocorrencias
dori_gbif1 %>% 
  filter(datasetName %in% c("Diveboard - Scuba diving citizen science"))

## # A tibble: 25 x 14
##    scientificName     acceptedScientifi… decimalLatitude decimalLongitude issues
##    <chr>              <chr>                        <dbl>            <dbl> <chr> 
##  1 Paracanthurus hep… Paracanthurus hep…            4.11            119.  cdreps
##  2 Paracanthurus hep… Paracanthurus hep…           -8.4             119.  cdreps
##  3 Paracanthurus hep… Paracanthurus hep…           16.1             -61.8 cdreps
##  4 Paracanthurus hep… Paracanthurus hep…           23.2             -81.2 cdreps
##  5 Paracanthurus hep… Paracanthurus hep…           26.2             -80   cdreps
##  6 Paracanthurus hep… Paracanthurus hep…           24.5             -81.9 cdreps
##  7 Paracanthurus hep… Paracanthurus hep…           13.5             121.  cdreps
##  8 Paracanthurus hep… Paracanthurus hep…           18.4             -69.7 cdreps
##  9 Paracanthurus hep… Paracanthurus hep…           27.5              34.2 cdreps
## 10 Paracanthurus hep… Paracanthurus hep…           19.3             -81.1 cdreps
## # … with 15 more rows, and 9 more variables: waterBody <chr>,
## #   basisOfRecord <chr>, occurrenceStatus <chr>, rightsHolder <chr>,
## #   datasetName <chr>, recordedBy <chr>, depth <dbl>, locality <chr>,
## #   habitat <chr>
…
